<?xml version="1.0" encoding="UTF-8" standalone="no"?>
<!-- Created with Inkscape (http://www.inkscape.org/) -->
<svg
    xmlns:inkscape="http://www.inkscape.org/namespaces/inkscape"
    xmlns:rdf="http://www.w3.org/1999/02/22-rdf-syntax-ns#"
    xmlns="http://www.w3.org/2000/svg"
    xmlns:sodipodi="http://sodipodi.sourceforge.net/DTD/sodipodi-0.dtd"
    xmlns:cc="http://web.resource.org/cc/"
    xmlns:xlink="http://www.w3.org/1999/xlink"
    xmlns:dc="http://purl.org/dc/elements/1.1/"
    xmlns:svg="http://www.w3.org/2000/svg"
    xmlns:ns1="http://sozi.baierouge.fr"
    id="svg2"
    sodipodi:docname="sword.with.jewles.chis.king.01.svg"
    sodipodi:modified="true"
    viewBox="0 0 1052.4 744.09"
    sodipodi:version="0.32"
    version="1.0"
    inkscape:output_extension="org.inkscape.output.svg.inkscape"
    inkscape:version="0.45+devel"
    sodipodi:docbase="C:\Old Drives\Chris\chris's swords"
  >
  <defs
      id="defs4"
    >
    <linearGradient
        id="linearGradient36854"
      >
      <stop
          id="stop36856"
          style="stop-color:#b09957"
          offset="0"
      />
      <stop
          id="stop36858"
          style="stop-color:#2b281e"
          offset="1"
      />
    </linearGradient
    >
    <linearGradient
        id="linearGradient32905"
      >
      <stop
          id="stop32907"
          style="stop-color:#cac45e"
          offset="0"
      />
      <stop
          id="stop33886"
          style="stop-color:#747134"
          offset=".76786"
      />
      <stop
          id="stop32909"
          style="stop-color:#1f1e0a"
          offset="1"
      />
    </linearGradient
    >
    <linearGradient
        id="linearGradient29935"
      >
      <stop
          id="stop29937"
          style="stop-color:#292920"
          offset="0"
      />
      <stop
          id="stop30912"
          style="stop-color:#b6bbb8"
          offset=".76786"
      />
      <stop
          id="stop29939"
          style="stop-color:#000000"
          offset="1"
      />
    </linearGradient
    >
    <linearGradient
        id="linearGradient26803"
        inkscape:collect="always"
      >
      <stop
          id="stop26805"
          style="stop-color:#ffffff"
          offset="0"
      />
      <stop
          id="stop26807"
          style="stop-color:#ffffff;stop-opacity:0"
          offset="1"
      />
    </linearGradient
    >
    <linearGradient
        id="linearGradient25814"
      >
      <stop
          id="stop25816"
          style="stop-color:#e80d0d"
          offset="0"
      />
      <stop
          id="stop25818"
          style="stop-color:#000000"
          offset="1"
      />
    </linearGradient
    >
    <clipPath
        id="clipPath25828"
        clipPathUnits="userSpaceOnUse"
      >
      <path
          id="path25830"
          sodipodi:rx="64.42308"
          sodipodi:ry="51.923077"
          style="fill:url(#radialGradient25832)"
          sodipodi:type="arc"
          sodipodi:start="0"
          sodipodi:open="true"
          transform="translate(0,40)"
          sodipodi:cy="254.28526"
          sodipodi:cx="345.19232"
          sodipodi:end="6.2800626"
          d="m409.62 254.29a64.423 51.923 0 1 1 0 -0.17"
      />
    </clipPath
    >
    <radialGradient
        id="radialGradient25832"
        xlink:href="#linearGradient25814"
        gradientUnits="userSpaceOnUse"
        cy="254.29"
        cx="345.19"
        gradientTransform="matrix(1 0 0 .80597 0 49.339)"
        r="64.423"
        inkscape:collect="always"
    />
    <filter
        id="filter31917"
        height="1.0964"
        width="2.36"
        y="-.048189"
        x="-0.68"
        inkscape:collect="always"
      >
      <feGaussianBlur
          id="feGaussianBlur31919"
          stdDeviation="11.769232"
          inkscape:collect="always"
      />
    </filter
    >
    <clipPath
        id="clipPath38865"
        clipPathUnits="userSpaceOnUse"
      >
      <path
          id="path38867"
          sodipodi:nodetypes="cczccccc"
          style="fill:#5e5e5e"
          d="m72.269 820.84l84.571 10s42.28-10 84.57-10 84.57 10 84.57 10l84.57-10-20 65.61c-97.57 6.51-195.36 12.23-298.28 0l-20.001-65.61z"
      />
    </clipPath
    >
    <filter
        id="filter43742"
        inkscape:collect="always"
      >
      <feGaussianBlur
          id="feGaussianBlur43744"
          stdDeviation="1.1233427"
          inkscape:collect="always"
      />
    </filter
    >
    <filter
        id="filter45700"
        inkscape:collect="always"
      >
      <feGaussianBlur
          id="feGaussianBlur45702"
          stdDeviation="1.95538"
          inkscape:collect="always"
      />
    </filter
    >
    <filter
        id="filter47048"
        inkscape:collect="always"
      >
      <feGaussianBlur
          id="feGaussianBlur47050"
          stdDeviation="16.229403"
          inkscape:collect="always"
      />
    </filter
    >
    <radialGradient
        id="radialGradient47089"
        xlink:href="#linearGradient36854"
        gradientUnits="userSpaceOnUse"
        cy="684.35"
        cx="-38.954"
        gradientTransform="matrix(.65679 -.28879 .14216 .32331 -110.66 451.85)"
        r="77.656"
        inkscape:collect="always"
    />
    <linearGradient
        id="linearGradient47113"
        y2="835.56"
        spreadMethod="reflect"
        gradientUnits="userSpaceOnUse"
        x2="235.77"
        gradientTransform="translate(0,2)"
        y1="877.59"
        x1="235.77"
        inkscape:collect="always"
      >
      <stop
          id="stop40817"
          style="stop-color:#5e5e5e"
          offset="0"
      />
      <stop
          id="stop40819"
          style="stop-color:#c5c5c5"
          offset="1"
      />
    </linearGradient
    >
    <linearGradient
        id="linearGradient47115"
        y2="917.57"
        xlink:href="#linearGradient29935"
        spreadMethod="reflect"
        gradientUnits="userSpaceOnUse"
        x2="348.41"
        gradientTransform="translate(0,2)"
        y1="832.49"
        x1="287.15"
        inkscape:collect="always"
    />
    <linearGradient
        id="linearGradient47117"
        y2="881.64"
        spreadMethod="reflect"
        gradientUnits="userSpaceOnUse"
        x2="404.91"
        y1="848.71"
        x1="404.91"
        inkscape:collect="always"
      >
      <stop
          id="stop44719"
          style="stop-color:#ffffff"
          offset="0"
      />
      <stop
          id="stop45694"
          style="stop-color:#ffffff;stop-opacity:0"
          offset=".5"
      />
      <stop
          id="stop44721"
          style="stop-color:#ffffff;stop-opacity:0"
          offset="1"
      />
    </linearGradient
    >
    <radialGradient
        id="radialGradient47119"
        gradientUnits="userSpaceOnUse"
        cy="786.46"
        cx="241.41"
        gradientTransform="matrix(1 0 0 .37770 0 532.43)"
        r="90.721"
        inkscape:collect="always"
      >
      <stop
          id="stop39840"
          style="stop-color:#000000"
          offset="0"
      />
      <stop
          id="stop39842"
          style="stop-color:#000000;stop-opacity:.19588"
          offset="1"
      />
    </radialGradient
    >
    <linearGradient
        id="linearGradient47121"
        y2="381.21"
        xlink:href="#linearGradient29935"
        spreadMethod="reflect"
        gradientUnits="userSpaceOnUse"
        x2="320.19"
        gradientTransform="matrix(.31933 0 0 1.3579 133.52 -46.327)"
        y1="381.21"
        x1="203.85"
        inkscape:collect="always"
    />
    <linearGradient
        id="linearGradient47123"
        y2="173.75"
        spreadMethod="reflect"
        gradientUnits="userSpaceOnUse"
        x2="421.54"
        gradientTransform="matrix(.39030 0 0 .39030 112.3 426.4)"
        y1="-484.4"
        x1="363.45"
        inkscape:collect="always"
      >
      <stop
          id="stop18903"
          style="stop-color:#f8f5ec"
          offset="0"
      />
      <stop
          id="stop18905"
          style="stop-color:#000000"
          offset="1"
      />
    </linearGradient
    >
    <radialGradient
        id="radialGradient47127"
        xlink:href="#linearGradient32905"
        gradientUnits="userSpaceOnUse"
        cy="254.29"
        cx="345.19"
        gradientTransform="matrix(1 0 0 .81864 0 46.118)"
        r="68.923"
        inkscape:collect="always"
    />
    <radialGradient
        id="radialGradient47129"
        xlink:href="#linearGradient26803"
        gradientUnits="userSpaceOnUse"
        cy="274.29"
        cx="345.19"
        gradientTransform="matrix(1 0 0 .49552 0 138.37)"
        r="64.423"
        inkscape:collect="always"
    />
    <filter
        id="filter48139"
        inkscape:collect="always"
      >
      <feGaussianBlur
          id="feGaussianBlur48141"
          stdDeviation="3.4068584"
          inkscape:collect="always"
      />
    </filter
    >
  </defs
  >
  <sodipodi:namedview
      id="base"
      bordercolor="#666666"
      inkscape:pageshadow="2"
      guidetolerance="10"
      pagecolor="#ffffff"
      gridtolerance="10000"
      inkscape:window-height="721"
      width="1052.3622px"
      inkscape:zoom="0.63727355"
      objecttolerance="10"
      height="744.09448px"
      borderopacity="1.0"
      inkscape:current-layer="layer1"
      inkscape:cx="506.39724"
      inkscape:cy="391.58653"
      inkscape:window-y="-4"
      inkscape:window-x="-4"
      inkscape:window-width="1024"
      inkscape:pageopacity="0.0"
      inkscape:document-units="px"
  />
  <g
      id="layer1"
      inkscape:label="Layer 1"
      inkscape:groupmode="layer"
    >
    <g
        id="g47052"
        transform="translate(-9.151 23.669)"
      >
      <path
          id="path45833"
          style="filter:url(#filter47048);stroke:#000000;stroke-width:5.9593;fill:#000000"
          d="m989.75 15.311l-115.22 38.062-525.35 383.19c-3.77-0.1-7.47 0.43-10.96 1.59-20.9-14.19-42.77-17.93-57.04-7.53-0.57 0.42-1.11 0.86-1.65 1.32-1.22-1.08-2.03-1.79-2.03-1.79l-41.78-74.21-25.07 43.03c20.11 35.79 42.06 69.29 65.1 101.34 0.01 0.02 0.01 0.04 0.03 0.06 0.63 1.46 1.26 2.92 1.97 4.38-2.5-0.06-4.78 0.54-6.66 1.9-3.64 2.66-5.04 7.64-4.34 13.47-5.34-2.44-10.52-2.65-14.16 0-3.64 2.66-5.01 7.64-4.31 13.47-5.34-2.44-10.51-2.62-14.16 0.03-3.64 2.66-5.04 7.64-4.34 13.47-5.34-2.44-10.51-2.66-14.16 0-3.64 2.66-5.01 7.64-4.31 13.47-5.34-2.45-10.51-2.66-14.16 0-3.64 2.65-5.03 7.65-4.34 13.47-5.34-2.44-10.52-2.63-14.16 0.03s-5.01 7.64-4.31 13.47c-5.35-2.45-10.51-2.66-14.16 0-3.63 2.65-5.03 7.65-4.34 13.47-5.34-2.44-10.51-2.63-14.16 0.03-3.64 2.66-5 7.64-4.31 13.47-5.35-2.46-10.51-2.66-14.15 0-3.64 2.65-5.04 7.65-4.35 13.47-5.33-2.44-10.51-2.63-14.15 0.03-3.65 2.66-5.014 7.63-4.32 13.47-5.346-2.46-10.504-2.66-14.153 0-3.645 2.66-5.041 7.63-4.344 13.47-5.337-2.44-10.515-2.63-14.156 0.03-7.031 5.13-5.734 18.9 2.906 30.75 8.639 11.84 21.375 17.28 28.406 12.15l0.031-0.03c3.61-2.66 5-7.64 4.31-13.44 5.33 2.43 10.49 2.63 14.13-0.03l0.06-0.03c3.62-2.67 4.98-7.62 4.28-13.44 5.34 2.45 10.51 2.66 14.16 0l0.03-0.03c3.61-2.66 5-7.61 4.31-13.4 5.33 2.42 10.49 2.62 14.13-0.03l0.06-0.04c3.62-2.66 4.97-7.65 4.28-13.46 5.34 2.44 10.51 2.65 14.16 0l0.03-0.04c3.61-2.66 5-7.61 4.31-13.4 5.33 2.42 10.49 2.62 14.13-0.03l0.06-0.03c3.61-2.67 4.97-7.64 4.28-13.44 5.34 2.44 10.51 2.62 14.16-0.03l0.03-0.03c3.61-2.67 5-7.63 4.31-13.44 5.33 2.43 10.48 2.65 14.12 0l0.07-0.03c3.61-2.67 4.96-7.64 4.28-13.44 5.33 2.44 10.51 2.62 14.15-0.03l0.04-0.03c3.61-2.67 5-7.63 4.31-13.44 5.33 2.43 10.48 2.65 14.12 0l0.07-0.03c3.61-2.67 4.96-7.64 4.28-13.44 5.33 2.44 10.51 2.63 14.15-0.03l0.03-0.03c3.62-2.67 5.01-7.63 4.32-13.44 5.33 2.44 10.48 2.66 14.12 0l0.06-0.03c1.86-1.37 3.11-3.36 3.82-5.75 2.09 1.99 4.22 3.88 6.37 5.66 24.07 30.86 48.9 60.75 73.81 90.53l48.66-10.72-57.94-62.44s-0.4-0.98-1.06-2.47c0.6-0.37 1.2-0.76 1.78-1.19l0.13-0.09c14.16-10.45 17.24-32.37 10.12-56.53 2.17-2.96 3.79-6.32 4.85-9.94l525.34-383.19 71.44-98.089z"
      />
      <g
          id="g45728"
          transform="matrix(.58930 .80792 -.80792 .58930 882.87 -203.76)"
        >
        <g
            id="g36906"
            transform="matrix(.71488 0 0 1 67.367 -11.101)"
          >
          <path
              id="path35883"
              sodipodi:rx="67.656311"
              sodipodi:ry="17.426626"
              style="stroke:#000000;stroke-width:10;fill:url(#radialGradient47089)"
              sodipodi:type="arc"
              d="m28.703 684.35a67.656 17.427 0 1 1 -0.001 -0.05"
              sodipodi:open="true"
              transform="matrix(.54913 0 0 .90465 256.96 281.09)"
              sodipodi:cy="684.35284"
              sodipodi:cx="-38.953632"
              sodipodi:end="6.2800626"
              sodipodi:start="0"
          />
          <path
              id="path36862"
              sodipodi:rx="67.656311"
              sodipodi:ry="17.426626"
              style="stroke:#000000;stroke-width:10;fill:url(#radialGradient47089)"
              sodipodi:type="arc"
              d="m28.703 684.35a67.656 17.427 0 1 1 -0.001 -0.05"
              sodipodi:open="true"
              transform="matrix(.54913 0 0 .90465 256.96 303.97)"
              sodipodi:cy="684.35284"
              sodipodi:cx="-38.953632"
              sodipodi:end="6.2800626"
              sodipodi:start="0"
          />
          <path
              id="path36866"
              sodipodi:rx="67.656311"
              sodipodi:ry="17.426626"
              style="stroke:#000000;stroke-width:10;fill:url(#radialGradient47089)"
              sodipodi:type="arc"
              d="m28.703 684.35a67.656 17.427 0 1 1 -0.001 -0.05"
              sodipodi:open="true"
              transform="matrix(.54913 0 0 .90465 256.96 326.85)"
              sodipodi:cy="684.35284"
              sodipodi:cx="-38.953632"
              sodipodi:end="6.2800626"
              sodipodi:start="0"
          />
          <path
              id="path36870"
              sodipodi:rx="67.656311"
              sodipodi:ry="17.426626"
              style="stroke:#000000;stroke-width:10;fill:url(#radialGradient47089)"
              sodipodi:type="arc"
              d="m28.703 684.35a67.656 17.427 0 1 1 -0.001 -0.05"
              sodipodi:open="true"
              transform="matrix(.54913 0 0 .90465 256.96 349.73)"
              sodipodi:cy="684.35284"
              sodipodi:cx="-38.953632"
              sodipodi:end="6.2800626"
              sodipodi:start="0"
          />
          <path
              id="path36874"
              sodipodi:rx="67.656311"
              sodipodi:ry="17.426626"
              style="stroke:#000000;stroke-width:10;fill:url(#radialGradient47089)"
              sodipodi:type="arc"
              d="m28.703 684.35a67.656 17.427 0 1 1 -0.001 -0.05"
              sodipodi:open="true"
              transform="matrix(.54913 0 0 .90465 256.96 372.61)"
              sodipodi:cy="684.35284"
              sodipodi:cx="-38.953632"
              sodipodi:end="6.2800626"
              sodipodi:start="0"
          />
          <path
              id="path36878"
              sodipodi:rx="67.656311"
              sodipodi:ry="17.426626"
              style="stroke:#000000;stroke-width:10;fill:url(#radialGradient47089)"
              sodipodi:type="arc"
              d="m28.703 684.35a67.656 17.427 0 1 1 -0.001 -0.05"
              sodipodi:open="true"
              transform="matrix(.54913 0 0 .90465 256.96 395.48)"
              sodipodi:cy="684.35284"
              sodipodi:cx="-38.953632"
              sodipodi:end="6.2800626"
              sodipodi:start="0"
          />
          <path
              id="path36882"
              sodipodi:rx="67.656311"
              sodipodi:ry="17.426626"
              style="stroke:#000000;stroke-width:10;fill:url(#radialGradient47089)"
              sodipodi:type="arc"
              d="m28.703 684.35a67.656 17.427 0 1 1 -0.001 -0.05"
              sodipodi:open="true"
              transform="matrix(.54913 0 0 .90465 256.96 418.36)"
              sodipodi:cy="684.35284"
              sodipodi:cx="-38.953632"
              sodipodi:end="6.2800626"
              sodipodi:start="0"
          />
          <path
              id="path36886"
              sodipodi:rx="67.656311"
              sodipodi:ry="17.426626"
              style="stroke:#000000;stroke-width:10;fill:url(#radialGradient47089)"
              sodipodi:type="arc"
              d="m28.703 684.35a67.656 17.427 0 1 1 -0.001 -0.05"
              sodipodi:open="true"
              transform="matrix(.54913 0 0 .90465 256.96 441.24)"
              sodipodi:cy="684.35284"
              sodipodi:cx="-38.953632"
              sodipodi:end="6.2800626"
              sodipodi:start="0"
          />
          <path
              id="path36890"
              sodipodi:rx="67.656311"
              sodipodi:ry="17.426626"
              style="stroke:#000000;stroke-width:10;fill:url(#radialGradient47089)"
              sodipodi:type="arc"
              d="m28.703 684.35a67.656 17.427 0 1 1 -0.001 -0.05"
              sodipodi:open="true"
              transform="matrix(.54913 0 0 .90465 256.96 464.12)"
              sodipodi:cy="684.35284"
              sodipodi:cx="-38.953632"
              sodipodi:end="6.2800626"
              sodipodi:start="0"
          />
          <path
              id="path36894"
              sodipodi:rx="67.656311"
              sodipodi:ry="17.426626"
              style="stroke:#000000;stroke-width:10;fill:url(#radialGradient47089)"
              sodipodi:type="arc"
              d="m28.703 684.35a67.656 17.427 0 1 1 -0.001 -0.05"
              sodipodi:open="true"
              transform="matrix(.54913 0 0 .90465 256.96 487)"
              sodipodi:cy="684.35284"
              sodipodi:cx="-38.953632"
              sodipodi:end="6.2800626"
              sodipodi:start="0"
          />
          <path
              id="path36898"
              sodipodi:rx="67.656311"
              sodipodi:ry="17.426626"
              style="stroke:#000000;stroke-width:10;fill:url(#radialGradient47089)"
              sodipodi:type="arc"
              d="m28.703 684.35a67.656 17.427 0 1 1 -0.001 -0.05"
              sodipodi:open="true"
              transform="matrix(.54913 0 0 .90465 256.96 509.88)"
              sodipodi:cy="684.35284"
              sodipodi:cx="-38.953632"
              sodipodi:end="6.2800626"
              sodipodi:start="0"
          />
          <path
              id="path36902"
              sodipodi:rx="67.656311"
              sodipodi:ry="17.426626"
              style="stroke:#000000;stroke-width:10;fill:url(#radialGradient47089)"
              sodipodi:type="arc"
              d="m28.703 684.35a67.656 17.427 0 1 1 -0.001 -0.05"
              sodipodi:open="true"
              transform="matrix(.54913 0 0 .90465 256.96 532.76)"
              sodipodi:cy="684.35284"
              sodipodi:cx="-38.953632"
              sodipodi:end="6.2800626"
              sodipodi:start="0"
          />
        </g
        >
        <path
            id="rect36920"
            sodipodi:nodetypes="cczccccc"
            style="stroke:url(#linearGradient47115);stroke-width:10;fill:url(#linearGradient47113)"
            d="m66.631 828.84l84.569 10s42.29-10 84.57-10c42.29 0 84.57 10 84.57 10l84.57-10-20 45.61c-97.56 6.51-195.36 12.23-298.28 0l-19.999-45.61z"
        />
        <path
            id="path43746"
            sodipodi:nodetypes="cczccccc"
            style="opacity:.86667;filter:url(#filter45700);fill:url(#linearGradient47117)"
            d="m66.631 828.84l84.569 10s42.29-10 84.57-10c42.29 0 84.57 10 84.57 10l84.57-10-20 45.61c-97.56 6.51-195.36 12.23-298.28 0l-19.999-45.61z"
        />
        <path
            id="path37892"
            sodipodi:rx="90.720963"
            sodipodi:ry="43.566563"
            style="filter:url(#filter43742);fill:url(#radialGradient47119)"
            sodipodi:type="arc"
            d="m332.13 827.35a90.721 43.567 0 1 1 0 -0.13"
            clip-path="url(#clipPath38865)"
            sodipodi:open="true"
            transform="matrix(.90412 0 0 1.1158 17.508 -87.048)"
            sodipodi:cy="827.3537"
            sodipodi:cx="241.41002"
            sodipodi:end="6.2800626"
            sodipodi:start="0"
        />
        <path
            id="rect27802"
            sodipodi:nodetypes="cccccc"
            style="stroke:url(#linearGradient47123);stroke-width:7.8059;fill:url(#linearGradient47121)"
            d="m198.62 134.45l37.15-115.53 37.16 115.53v673.72h-74.31v-673.72z"
        />
        <rect
            id="rect30914"
            style="filter:url(#filter31917);fill:#ffffff"
            transform="matrix(.39030 0 0 1.3994 112.56 -72.507)"
            height="488.46"
            width="34.615"
            y="141.62"
            x="252.25"
        />
        <g
            id="g33892"
            transform="matrix(.098864 0 0 .15678 147.18 585.03)"
          >
          <path
              id="path33894"
              sodipodi:rx="64.42308"
              sodipodi:ry="51.923077"
              style="stroke:url(#radialGradient47127);stroke-width:9;fill:url(#radialGradient25832)"
              sodipodi:type="arc"
              d="m409.62 254.29a64.423 51.923 0 1 1 0 -0.17"
              sodipodi:open="true"
              transform="matrix(3.0897 0 0 3.4618 -170.4 -671.01)"
              sodipodi:cy="254.28526"
              sodipodi:cx="345.19232"
              sodipodi:end="6.2800626"
              sodipodi:start="0"
          />
          <path
              id="path33896"
              sodipodi:rx="64.42308"
              sodipodi:ry="51.923077"
              style="fill:url(#radialGradient47129)"
              sodipodi:type="arc"
              d="m409.62 254.29a64.423 51.923 0 1 1 0 -0.17"
              clip-path="url(#clipPath25828)"
              sodipodi:open="true"
              transform="matrix(3.0897 0 0 3.4618 -170.4 -809.48)"
              sodipodi:cy="254.28526"
              sodipodi:cx="345.19232"
              sodipodi:end="6.2800626"
              sodipodi:start="0"
          />
        </g
        >
        <g
            id="g33904"
            transform="matrix(.098864 0 0 .15678 147.18 496.08)"
          >
          <path
              id="path33906"
              sodipodi:rx="64.42308"
              sodipodi:ry="51.923077"
              style="stroke:url(#radialGradient47127);stroke-width:9;fill:url(#radialGradient25832)"
              sodipodi:type="arc"
              d="m409.62 254.29a64.423 51.923 0 1 1 0 -0.17"
              sodipodi:open="true"
              transform="matrix(3.0897 0 0 3.4618 -170.4 -671.01)"
              sodipodi:cy="254.28526"
              sodipodi:cx="345.19232"
              sodipodi:end="6.2800626"
              sodipodi:start="0"
          />
          <path
              id="path33908"
              sodipodi:rx="64.42308"
              sodipodi:ry="51.923077"
              style="fill:url(#radialGradient47129)"
              sodipodi:type="arc"
              d="m409.62 254.29a64.423 51.923 0 1 1 0 -0.17"
              clip-path="url(#clipPath25828)"
              sodipodi:open="true"
              transform="matrix(3.0897 0 0 3.4618 -170.4 -809.48)"
              sodipodi:cy="254.28526"
              sodipodi:cx="345.19232"
              sodipodi:end="6.2800626"
              sodipodi:start="0"
          />
        </g
        >
        <g
            id="g35863"
            transform="matrix(.21965 0 0 .19680 38.941 789.4)"
          >
          <path
              id="path35865"
              sodipodi:rx="64.42308"
              sodipodi:ry="51.923077"
              style="stroke:url(#radialGradient47127);stroke-width:9;fill:url(#radialGradient25832)"
              sodipodi:type="arc"
              d="m409.62 254.29a64.423 51.923 0 1 1 0 -0.17"
              sodipodi:open="true"
              transform="matrix(3.0897 0 0 3.4618 -170.4 -671.01)"
              sodipodi:cy="254.28526"
              sodipodi:cx="345.19232"
              sodipodi:end="6.2800626"
              sodipodi:start="0"
          />
          <path
              id="path35867"
              sodipodi:rx="64.42308"
              sodipodi:ry="51.923077"
              style="fill:url(#radialGradient47129)"
              sodipodi:type="arc"
              d="m409.62 254.29a64.423 51.923 0 1 1 0 -0.17"
              clip-path="url(#clipPath25828)"
              sodipodi:open="true"
              transform="matrix(3.0897 0 0 3.4618 -170.4 -809.48)"
              sodipodi:cy="254.28526"
              sodipodi:cx="345.19232"
              sodipodi:end="6.2800626"
              sodipodi:start="0"
          />
        </g
        >
        <g
            id="g45704"
            transform="matrix(.069820 0 0 .069820 173.51 871.36)"
          >
          <path
              id="path45706"
              sodipodi:rx="64.42308"
              sodipodi:ry="51.923077"
              style="stroke:url(#radialGradient47127);stroke-width:9;fill:url(#radialGradient25832)"
              sodipodi:type="arc"
              d="m409.62 254.29a64.423 51.923 0 1 1 0 -0.17"
              sodipodi:open="true"
              transform="matrix(3.0897 0 0 3.4618 -170.4 -671.01)"
              sodipodi:cy="254.28526"
              sodipodi:cx="345.19232"
              sodipodi:end="6.2800626"
              sodipodi:start="0"
          />
          <path
              id="path45708"
              sodipodi:rx="64.42308"
              sodipodi:ry="51.923077"
              style="fill:url(#radialGradient47129)"
              sodipodi:type="arc"
              d="m409.62 254.29a64.423 51.923 0 1 1 0 -0.17"
              clip-path="url(#clipPath25828)"
              sodipodi:open="true"
              transform="matrix(3.0897 0 0 3.4618 -170.4 -809.48)"
              sodipodi:cy="254.28526"
              sodipodi:cx="345.19232"
              sodipodi:end="6.2800626"
              sodipodi:start="0"
          />
        </g
        >
        <g
            id="g45716"
            transform="matrix(.090166 0 0 .090166 154.78 1133.1)"
          >
          <path
              id="path45718"
              sodipodi:rx="64.42308"
              sodipodi:ry="51.923077"
              style="stroke:url(#radialGradient47127);stroke-width:9;fill:url(#radialGradient25832)"
              sodipodi:type="arc"
              d="m409.62 254.29a64.423 51.923 0 1 1 0 -0.17"
              sodipodi:open="true"
              transform="matrix(3.0897 0 0 3.4618 -170.4 -671.01)"
              sodipodi:cy="254.28526"
              sodipodi:cx="345.19232"
              sodipodi:end="6.2800626"
              sodipodi:start="0"
          />
          <path
              id="path45720"
              sodipodi:rx="64.42308"
              sodipodi:ry="51.923077"
              style="fill:url(#radialGradient47129)"
              sodipodi:type="arc"
              d="m409.62 254.29a64.423 51.923 0 1 1 0 -0.17"
              clip-path="url(#clipPath25828)"
              sodipodi:open="true"
              transform="matrix(3.0897 0 0 3.4618 -170.4 -809.48)"
              sodipodi:cy="254.28526"
              sodipodi:cx="345.19232"
              sodipodi:end="6.2800626"
              sodipodi:start="0"
          />
        </g
        >
      </g
      >
    </g
    >
    <path
        id="rect47155"
        sodipodi:nodetypes="ccccc"
        style="opacity:.61667;filter:url(#filter48139);fill:#ffffff"
        d="m277.16 533.27l7.97 11.67-188.83 132.23-7.962-11.66 188.82-132.24z"
    />
  </g
  >
  <metadata
    >
    <rdf:RDF
      >
      <cc:Work
        >
        <dc:format
          >image/svg+xml</dc:format
        >
        <dc:type
            rdf:resource="http://purl.org/dc/dcmitype/StillImage"
        />
        <cc:license
            rdf:resource="http://creativecommons.org/licenses/publicdomain/"
        />
        <dc:publisher
          >
          <cc:Agent
              rdf:about="http://openclipart.org/"
            >
            <dc:title
              >Openclipart</dc:title
            >
          </cc:Agent
          >
        </dc:publisher
        >
        <dc:title
          >Jeweled Sword</dc:title
        >
        <dc:date
          >2007-07-18T19:19:57</dc:date
        >
        <dc:description
          >A sword me and my brother made.</dc:description
        >
        <dc:source
          >https://openclipart.org/detail/4472/jeweled-sword-by-lilking-4472</dc:source
        >
        <dc:creator
          >
          <cc:Agent
            >
            <dc:title
              >lilking</dc:title
            >
          </cc:Agent
          >
        </dc:creator
        >
        <dc:subject
          >
          <rdf:Bag
            >
            <rdf:li
              >how i did it</rdf:li
            >
            <rdf:li
              >jewel</rdf:li
            >
            <rdf:li
              >medieval</rdf:li
            >
            <rdf:li
              >melee</rdf:li
            >
            <rdf:li
              >metal</rdf:li
            >
            <rdf:li
              >metallic</rdf:li
            >
            <rdf:li
              >red</rdf:li
            >
            <rdf:li
              >sword</rdf:li
            >
            <rdf:li
              >weapon</rdf:li
            >
          </rdf:Bag
          >
        </dc:subject
        >
      </cc:Work
      >
      <cc:License
          rdf:about="http://creativecommons.org/licenses/publicdomain/"
        >
        <cc:permits
            rdf:resource="http://creativecommons.org/ns#Reproduction"
        />
        <cc:permits
            rdf:resource="http://creativecommons.org/ns#Distribution"
        />
        <cc:permits
            rdf:resource="http://creativecommons.org/ns#DerivativeWorks"
        />
      </cc:License
      >
    </rdf:RDF
    >
  </metadata
  >
</svg
>
